/* XPM */
static char * crwx_xpm[] = {
"48 48 5 1",
" 	c None",
".	c #000000",
"+	c #3C3CFF",
"@	c #3D3DFF",
"#	c #3B3BFF",
"                                                ",
"                                                ",
"                                                ",
"                                                ",
"                ....                ...         ",
"            .........          ...........      ",
"           ..........        ..............     ",
"         ............       ................    ",
"        ...      ....      ...     ..  .....    ",
"       ..         ..      .        ..   ....    ",
"       .           .              ..   ....     ",
"      ..                         ..    ....     ",
"      .                          .   .....      ",
"     ..                         .   ....        ",
"     ..                        .. ....          ",
"     ..                        ....             ",
"     ..                       ....              ",
"     ...                     ......             ",
"     ....                   ........            ",
"     ......             .....  ......           ",
"     .......... .....   ....    ......          ",
"      ................   ..       ....          ",
"       ...............             ..           ",
"         ............               .           ",
"                                                ",
"                                                ",
"                                                ",
"                  ..                            ",
"    .... ....   ........                        ",
"    .........  ...  ...                         ",
"    ..... ... ...   ...                         ",
"    ....  ... ...   ...                         ",
"    ...  ...  ...   ...                         ",
"    ..   ...   .......                          ",
"   ...   ...    .....                           ",
"   ...   .... ...       ++@    +   +   ++    +  ",
"   ...  ..... .....     +++   ++   ++  +++  +   ",
"   ..    ...  .......    ++  +++   ++   ++ +    ",
"             .........   ++  +@+#  +    ++++    ",
"            ...    ...   ++   #+#  +     ++     ",
"            ...    ...   ++ + @+@ +     +++@    ",
"            .........    ++@  ++++     +++++    ",
"               ....      +++  @+++    ++  +++   ",
"                         ++   +++    ++   +++   ",
"                                                ",
"                                                ",
"                                                ",
"                                                "};
